…
| Macroarea     | Languages | Families | Cases of tonogenesis |
|:--------------|----------:|---------:|---------------------:|
| Africa        |         8 |        4 |                   11 |
| Eurasia       |        36 |        9 |                  115 |
| North America |        12 |        9 |                   19 |
| Papunesia     |         7 |        1 |                   10 |
| NA            |        17 |        8 |                   74 |

Number of languages in different families.

``` r
tonodb %>% select(family_id, Language_ID) %>% distinct() %>% group_by(family_id) %>% summarize(Languages = n())
```

    ## # A tibble: 22 × 2
    ##    family_id Languages
    ##    <chr>         <int>
    ##  1 afro1255          2
    ##  2 algi1248          3
    ##  3 atha1245          2
    ##  4 atla1278          4
    ##  5 aust1305          4
    ##  6 aust1307         12
    ##  7 cadd1255          1
    ##  8 cent2225          2
    ##  9 chim1311          1
    ## 10 gong1255          2
    ## # ℹ 12 more rows
…
